<?xml version="1.0" encoding="utf-8"?>
<!-- Generator: Adobe Illustrator 22.1.0, SVG Export Plug-In . SVG Version: 6.00 Build 0)  -->
<svg version="1.1" id="Layer_1" xmlns="http://www.w3.org/2000/svg" xmlns:xlink="http://www.w3.org/1999/xlink" x="0px" y="0px"
	 viewBox="0 0 96 96" style="enable-background:new 0 0 96 96;" xml:space="preserve">
<style type="text/css">
	.st0{fill:#E62C31;}
</style>
<g>
	<g>
		<path class="st0" d="M81.9,14.1C72.9,5,60.8,0,48,0S23.1,5,14,14.1C-3.4,31.5-4.7,59.5,10.9,78.4c-2.2,4.4-4.7,7.3-7.6,8.7
			c-1.7,0.9-2.7,2.8-2.5,4.7c0.3,2,1.8,3.5,3.7,3.8c1.1,0.2,2.2,0.3,3.4,0.3l0,0c5.9,0,12.1-2,17.3-5.6C32.2,94,40,96,48,96
			c12.8,0,24.9-5,33.9-14.1S96,60.8,96,48S91,23.1,81.9,14.1z M78.1,78.1c-8,8-18.7,12.5-30.1,12.5c-7.6,0-15.1-2-21.6-5.9
			c-0.4-0.2-0.9-0.4-1.4-0.4c-0.6,0-1.2,0.2-1.7,0.6c-6.2,4.8-12.3,5.5-15.1,5.5c3.2-2.4,6-6.2,8.2-11.4c0.4-1,0.2-2.1-0.5-2.9
			C1.2,59.4,2,33.8,17.9,17.9c8-8,18.7-12.5,30.1-12.5c11.4,0,22.1,4.4,30.1,12.5C94.7,34.5,94.7,61.5,78.1,78.1z"/>
		<path class="st0" d="M60.2,26c-4.3,0-8.4,1.7-11.5,4.8L48,31.5l-0.7-0.7c-3.1-3.1-7.2-4.8-11.5-4.8c-4.3,0-8.4,1.7-11.5,4.7
			c-3.1,3.1-4.8,7.2-4.7,11.5c0,4.3,1.7,8.4,4.8,11.5l21.7,21.7c0.5,0.5,1.2,0.8,1.9,0.8c0.7,0,1.4-0.3,1.9-0.8l21.8-21.7
			c3.1-3.1,4.8-7.2,4.8-11.5c0-4.3-1.7-8.4-4.7-11.5C68.6,27.7,64.5,26,60.2,26z M67.8,49.9L48,69.7L28.2,49.9
			c-2.1-2.1-3.2-4.8-3.2-7.7s1.1-5.6,3.2-7.6c2-2,4.7-3.2,7.6-3.2s5.6,1.1,7.7,3.2l2.6,2.6c1.1,1.1,2.8,1.1,3.8,0l2.6-2.6
			c2.1-2.1,4.8-3.2,7.7-3.2c2.9,0,5.6,1.1,7.6,3.2s3.2,4.8,3.2,7.6C71,45.2,69.8,47.9,67.8,49.9z"/>
	</g>
</g>
</svg>
